{
  "files": {
    "main.css": "./static/css/main.d9613207.chunk.css",
    "main.js": "./static/js/main.d174841f.chunk.js",
    "runtime-main.js": "./static/js/runtime-main.01c78487.js",
    "static/css/2.b41aa4b2.chunk.css": "./static/css/2.b41aa4b2.chunk.css",
    "static/js/2.f64161fd.chunk.js": "./static/js/2.f64161fd.chunk.js",
    "index.html": "./index.html",
    "precache-manifest.a1409f18eb231c78f710e071ebec6e0e.js": "./precache-manifest.a1409f18eb231c78f710e071ebec6e0e.js",
    "service-worker.js": "./service-worker.js",
    "static/js/2.f64161fd.chunk.js.LICENSE.txt": "./static/js/2.f64161fd.chunk.js.LICENSE.txt"
  },
  "entrypoints": [
    "static/js/runtime-main.01c78487.js",
    "static/css/2.b41aa4b2.chunk.css",
    "static/js/2.f64161fd.chunk.js",
    "static/css/main.d9613207.chunk.css",
    "static/js/main.d174841f.chunk.js"
  ]
}