<svg width="50" height="50" viewBox="0 0 50 50" fill="none" xmlns="http://www.w3.org/2000/svg">
<circle opacity="0.1" cx="25" cy="25" r="25" fill="#E67700"/>
<path fill-rule="evenodd" clip-rule="evenodd" d="M20.0149 16.0013L20.5568 16.002C20.6494 16.0021 20.743 16.0023 20.8376 16.0024L21.4134 16.0033C22.677 16.0055 24.0229 16.0085 25.0486 16.0106L25.4979 16.0115C25.5685 16.0117 25.6368 16.0118 25.7027 16.0119C28.2948 15.8299 30.6347 17.7538 30.8432 20.3356C30.8451 20.3621 30.8468 20.5123 30.8482 20.7857L33.2397 18.8272C33.9355 18.2569 34.8721 18.1452 35.6843 18.5288C36.4965 18.9148 37.0011 19.712 37 20.6106L36.9862 29.077C36.985 29.9757 36.4793 30.7729 35.6682 31.1554C35.3502 31.3063 35.0138 31.3789 34.6798 31.3789C34.1602 31.3789 33.6475 31.2003 33.2247 30.8535L30.8536 28.8861C30.8536 28.9194 30.8536 28.9528 30.8535 28.9864C30.9019 30.203 30.4688 31.3746 29.6324 32.2847C28.7533 33.2421 27.5414 33.7985 26.2211 33.8527C26.1987 33.8543 26.0725 33.8554 25.8655 33.856L25.4103 33.8568C25.2328 33.857 25.0311 33.857 24.8101 33.8569L23.8356 33.8559C23.7478 33.8558 23.6586 33.8557 23.5681 33.8556L23.0124 33.8547C21.6882 33.8524 20.1967 33.849 19.0403 33.8465L18.5667 33.8455C18.4166 33.8451 18.2749 33.8449 18.1429 33.8446C18.0208 33.8538 17.8987 33.8584 17.7765 33.8584C15.3411 33.8596 13.2167 31.9932 13.0163 29.5451L13.0161 29.5426L13.015 29.5198C13.0149 29.5173 13.0148 29.5146 13.0147 29.5115L13.014 29.4753C13.0139 29.4701 13.0138 29.4646 13.0137 29.4586L13.0128 29.3915C13.0127 29.3824 13.0126 29.3729 13.0125 29.3627L13.0116 29.2538C13.0115 29.2396 13.0114 29.2248 13.0113 29.2092L13.0106 29.1063C13.0105 29.0875 13.0104 29.068 13.0103 29.0475L13.0094 28.839C13.0093 28.813 13.0092 28.786 13.0091 28.758L13.0082 28.4774C13.0081 28.443 13.008 28.4074 13.0079 28.3706L13.0071 28.007C13.007 27.9628 13.0069 27.9174 13.0068 27.8706L13.0058 27.2435C13.0058 27.1855 13.0057 27.126 13.0056 27.0651L13.0047 26.032C13.0047 25.9549 13.0046 25.8762 13.0046 25.7956L13.0046 21.2819C13.0046 21.145 13.0047 21.0059 13.0047 20.8644C12.9494 19.6766 13.3803 18.4969 14.2213 17.5787C15.0992 16.6202 16.31 16.0615 17.6314 16.005C17.6492 16.0037 17.7334 16.0028 17.8723 16.0021L18.1201 16.0012C18.1678 16.0011 18.2185 16.001 18.2721 16.0009L19.756 16.001C19.8408 16.0011 19.9272 16.0012 20.0149 16.0013ZM25.7649 17.7377C24.3104 17.7356 22.5319 17.733 21.0141 17.7314L20.2157 17.7306C20.0881 17.7305 19.9635 17.7304 19.8424 17.7303L17.8389 17.7303C17.7635 17.7307 17.7147 17.7312 17.6959 17.7319C16.8457 17.7677 16.0611 18.1282 15.4955 18.7457C14.9678 19.3229 14.696 20.0602 14.7317 20.8252L14.7326 25.2756C14.7327 25.3738 14.7327 25.4714 14.7328 25.5681L14.7338 26.9437C14.7339 27.0293 14.734 27.1135 14.7341 27.1961L14.7347 27.672C14.7348 27.7479 14.7349 27.8219 14.735 27.894L14.7361 28.4873C14.7374 29.0214 14.7389 29.3678 14.7409 29.4345C14.8722 31.0301 16.3676 32.2502 18.0795 32.1188C18.2606 32.1191 18.4466 32.1194 18.6365 32.1197L19.2166 32.1206C19.7078 32.1214 20.2161 32.1223 20.7241 32.1231L21.3324 32.1241C21.6354 32.1246 21.9357 32.1251 22.2296 32.1256L22.8076 32.1264C22.9022 32.1266 22.9957 32.1267 23.0882 32.1268L23.628 32.1275C23.7153 32.1277 23.8012 32.1278 23.8856 32.1278L25.9194 32.1278C26.0525 32.1273 26.1361 32.1267 26.1612 32.1257C27.008 32.0912 27.7937 31.7317 28.3593 31.1154C28.8881 30.5405 29.16 29.8032 29.1266 29.0417L29.1256 29.0227L29.1254 23.4511C29.1253 23.3606 29.1253 23.2713 29.1252 23.1833L29.1244 22.1973C29.1243 22.1217 29.1242 22.0478 29.1241 21.976L29.1231 21.3845C29.1227 21.207 29.1223 21.0503 29.1219 20.9179L29.1209 20.6864C29.1202 20.5549 29.1194 20.4706 29.1185 20.4416C28.9884 18.8379 27.4861 17.6029 25.7649 17.7377ZM34.3341 20.1647L30.8531 23.0049C30.8532 23.1464 30.8534 23.2936 30.8535 23.4463L30.8542 26.3353L34.3203 29.5183C34.5749 29.7257 34.8307 29.6404 34.9297 29.592C35.0288 29.5459 35.2581 29.4019 35.2581 29.0747L35.2719 20.6083C35.2731 20.2811 35.0427 20.1371 34.9436 20.0899C34.8456 20.0438 34.5864 19.9574 34.3341 20.1647Z" fill="#E67700"/>
</svg>
