<?xml version="1.0" encoding="UTF-8"?>
<!DOCTYPE svg PUBLIC "-//W3C//DTD SVG 1.1//EN" "http://www.w3.org/Graphics/SVG/1.1/DTD/svg11.dtd">
<!-- Creator: CorelDRAW X7 -->
<svg xmlns="http://www.w3.org/2000/svg" xml:space="preserve" width="1050px" height="600px" version="1.1" style="shape-rendering:geometricPrecision; text-rendering:geometricPrecision; image-rendering:optimizeQuality; fill-rule:evenodd; clip-rule:evenodd"
viewBox="0 0 1050 600"
 xmlns:xlink="http://www.w3.org/1999/xlink">
 <defs>
  <style type="text/css">
   <![CDATA[
    .str2 {stroke:#999999;stroke-width:3.12402}
    .str0 {stroke:#999999;stroke-width:2.08346}
    .str1 {stroke:#999999;stroke-width:0.9}
    .fil0 {fill:none}
    .fil1 {fill:#999999}
   ]]>
  </style>
 </defs>
 <g id="Layer_x0020_1">
  <metadata id="CorelCorpID_0Corel-Layer"/>
  <g id="_775395000">
   <circle class="fil0 str0" cx="435" cy="336" r="20"/>
   <path class="fil1 str1" d="M409 334l5 0c1,0 2,1 2,1l0 2c0,1 -1,1 -2,1l-5 0c0,0 -1,0 -1,-1l0 -2c0,0 1,-1 1,-1z"/>
   <path class="fil1 str1" d="M437 310l0 6c0,0 0,1 -1,1l-2 0c0,0 -1,-1 -1,-1l0 -6c0,0 1,-1 1,-1l2 0c1,0 1,1 1,1z"/>
   <circle class="fil0 str2" cx="435" cy="336" r="11"/>
   <path class="fil1 str1" d="M457 334l4 0c1,0 1,1 1,1l0 2c0,1 0,1 -1,1l-4 0c-1,0 -1,0 -1,-1l0 -2c0,0 0,-1 1,-1z"/>
   <path class="fil1 str1" d="M437 362l0 -4c0,-1 0,-1 -1,-1l-2 0c0,0 -1,0 -1,1l0 4c0,1 1,1 1,1l2 0c1,0 1,0 1,-1z"/>
  </g>
 </g>
</svg>
