<?xml version="1.0" encoding="UTF-8"?>
<!DOCTYPE svg PUBLIC "-//W3C//DTD SVG 1.1//EN" "http://www.w3.org/Graphics/SVG/1.1/DTD/svg11.dtd">
<!-- Creator: CorelDRAW X7 -->
<svg xmlns="http://www.w3.org/2000/svg" xml:space="preserve" width="0.0999921in" height="0.0999921in" version="1.1" style="shape-rendering:geometricPrecision; text-rendering:geometricPrecision; image-rendering:optimizeQuality; fill-rule:evenodd; clip-rule:evenodd"
viewBox="0 0 100 100"
 xmlns:xlink="http://www.w3.org/1999/xlink">
 <defs>
  <style type="text/css">
   <![CDATA[
    .str0 {stroke:#FEFEFE;stroke-width:6.94488}
    .str1 {stroke:#FEFEFE;stroke-width:3}
    .fil1 {fill:none}
    .fil2 {fill:#FEFEFE}
    .fil0 {fill:#00A859}
   ]]>
  </style>
 </defs>
 <g id="Layer_x0020_1">
  <metadata id="CorelCorpID_0Corel-Layer"/>
  <circle class="fil0" cx="50" cy="50" r="83"/>
  <g id="_692041272">
   <ellipse class="fil1 str0" cx="50" cy="50" rx="37" ry="38"/>
   <rect class="fil2 str1" y="46" width="13.6507" height="7.58145" rx="2" ry="2"/>
   <rect class="fil2 str1" transform="matrix(2.74199E-014 1.03532 -1.03532 2.74199E-014 53.7868 -0.0944877)" width="13.185" height="7.32283" rx="2" ry="2"/>
   <ellipse class="fil1 str0" cx="50" cy="50" rx="20" ry="21"/>
   <rect class="fil2 str1" x="88" y="46" width="12.3956" height="7.58145" rx="2" ry="2"/>
   <rect class="fil2 str1" transform="matrix(-2.48989E-014 -0.940129 -1.03532 2.74199E-014 53.7868 100.087)" width="13.185" height="7.32283" rx="2" ry="2"/>
  </g>
 </g>
</svg>
